^C:\USERS\SYSAN\DOCUMENTS\VISUAL STUDIO 2017\PROJECTS\LAB5DLLS\MATHDLL\DEBUG\DLLMAIN.OBJ|C:\USERS\SYSAN\DOCUMENTS\VISUAL STUDIO 2017\PROJECTS\LAB5DLLS\MATHDLL\DEBUG\MATHDLL.OBJ|C:\USERS\SYSAN\DOCUMENTS\VISUAL STUDIO 2017\PROJECTS\LAB5DLLS\MATHDLL\DEBUG\STDAFX.OBJ
C:\USERS\SYSAN\DOCUMENTS\VISUAL STUDIO 2017\PROJECTS\LAB5DLLS\DEBUG\MATHDLL.ILK
C:\USERS\SYSAN\DOCUMENTS\VISUAL STUDIO 2017\PROJECTS\LAB5DLLS\DEBUG\MATHDLL.DLL
C:\USERS\SYSAN\DOCUMENTS\VISUAL STUDIO 2017\PROJECTS\LAB5DLLS\DEBUG\MATHDLL.PDB
